{
    "$schema": "https://cloudbase.it/coriolis-cd/schemas/appliance_config_schema#",
    "type": "object",
    "properties": {
      "host": {
          "type": "string",
          "description": "Hostname or ipaddress of Coriolis Appliance."
        },
      "user": {
        "type": "string",
        "description": "Username for Coriolis Appliance"
      },
      "password": {
        "type": "string",
        "description": "Password for Coriolis Appliance"
      }
    }
  }